23/05/2021 00:27:56;anerkannte Organisation;Verein Sommer- und Winternachtsfest;Corvin Spirgi;spirgic@vseth.ethz.ch;SoNaFe Bierverkauf;;;;;online/HXE;Ist dein Kühlschrank langsam leer? Brauchst du noch n Bier um das Semesterende korrekt ausklingen zu lassen? Oder hast du einfach mal Lust verschiedene Biere zu probieren ohne dabei gleich dein Budget zu überziehen? Dann schau dir mal den online SoNaFe Bierverkauf an! Bestelle noch bis zum So, 30.5. und hole dir dein Bier am Mi, 2.6. im HXE ab: https://cutt.ly/SoNaFeBEER;SoNaFe Beer Sale;Is your fridge sad and empty? Are you in need of some beers to crack open for the end of this stressful semester? Or would you just like to finally try some different varieties of beer without punishing your wallet too hard? Then take a look at the online SoNaFe Beer Sale! Order before Su, 30.5. and collect your beer on We, 2.6. @HXE: https://cutt.ly/SoNaFeBEER;sorry dases so spot isch, hoffe passt no ine <3;;;Der Eintrag ist keine Wiederholung / The entry has not been submitted yet, Ich habe die Rechtschreibung noch einmal kontrolliert / I double-checked the spelling
23/05/2021 00:07:37;anerkannte Organisation;Verein Sommer- und Winternachtsfest;Corvin Spirgi;spirgic@vseth.ethz.ch;SoNaFe 2021;3/6/2021;19:00:00;04/06/21;1:00:00;SoNaFe Discord;Das Sommernachtsfest findet dieses Jahr am Do, 3.6. auf Discord statt. Neben verschiedenen online Spielen und Hangout-Rooms gibt es auch ein Quiz bei dem ihr tolle Preise gewinnen könnt. Meldet euch schnell an, denn für die ersten 10 Teams gibt es etwas gratis Bier! Anmeldelink und Details findet ihr direkt auf dem SoNaFe Discord Server: https://cutt.ly/SoNaFeDISCORD ;SoNaFe 2021;This year's SoNaFe will take place on Th, 3.6. on Discord. You can take part in various social games, chat in the hangout rooms or sign up to the trivia quiz and win fabulous prices. But be quick, the first 10 teams will receive some free beer! All information will be communicated on the SoNaFe Discord server: https://cutt.ly/SoNaFeDISCORD ;;;;Der Eintrag ist keine Wiederholung / The entry has not been submitted yet, Ich habe die Rechtschreibung noch einmal kontrolliert / I double-checked the spelling
22/05/2021 23:07:51;Kommission;SEK;Roman Svoboda;roman.svoboda@vseth.ethz.ch;SEK: Coding Weekend;29/05/2021;9:00:00;30/05/2021;18:00:00;Online;Das VSETH Coding Weekend ist zurück, diesmal von der SEK organisiert. Es erwarten dich Workshops zu diversen Web-Technologien, ein Coding Wettbewerb und erfahrene Entwickler die deine Fragen beantworten können oder dir mit deinem Projekt weiterhelfen. Weitere Infos und Anmeldung findest du hier: http://bit.ly/sekcw-fs21;SEK: Coding Weekend;The VSETH Coding Weekend is back, this time organised by the SEK. The programme includes web-development workshops, a coding competition as well as experienced developers who can help you with your own project. Further infos and registration can be found here: http://bit.ly/sekcw-fs21;;;;Der Eintrag ist keine Wiederholung / The entry has not been submitted yet, Ich habe die Rechtschreibung noch einmal kontrolliert / I double-checked the spelling
22/05/2021 22:16:41;Kommission;Nightline;Simon Leisibach;pr@nightline.ch;Nightline: Die Nightline ist für dich da!;;;;;;Angst vor Prüfungen? Beziehungsprobleme? Fühlst du dich alleine gelassen im Studium? Egal was dich beschäftigt, die Nightline hat ein offenes Ohr für dich. Erreichen kannst du die Nightline täglich von 20:00-24:00 täglich per Chat und Nachricht auf www.nightline.ch. Das Ganze ist anonym und vertraulich.;Nightline: The Nightline is here for you!;Afraid of exams? Relationship issues? Do you feel lonely in your studies? Regardless of what your concerns are, the Nightline has an open ear for you. You can reach the Nightline daily from 20:00-24:00 by chat and message at www.nightline.ch. It's all anonymous and confidential.;Vielen Dank fürs Erstellen des Newsletters!;;;Der Eintrag ist keine Wiederholung / The entry has not been submitted yet, Ich habe die Rechtschreibung noch einmal kontrolliert / I double-checked the spelling
22/05/2021 20:14:09;anerkannte Organisation;Student Wine Association;Philipp Scherrer;phischer@ethz.ch;Wine Time mit SWAZ;;;;;;Wir organisieren Weintastings mit studentischen Preisen für euch. Komm einfach mal vorbei, egal ob Weinkenner oder Neuling. Schau doch auf unsere Homepage vorbei und melde dich gleich für das nächste Tasting morgen an mit dem Thema „neue Welt“ an: https://bit.ly/3yyMFnK 🍷🥂;Wine Time with SWAZ;"We organize wine tastings with student prices for you. Just come by, no matter if you are a wine connoisseur or a newcomer. Take a look at our homepage and register for the next tasting tomorrow with the theme ""new world"": https://bit.ly/3yyMFnK 🍷🥂";;;;Der Eintrag ist keine Wiederholung / The entry has not been submitted yet, Ich habe die Rechtschreibung noch einmal kontrolliert / I double-checked the spelling
22/05/2021 20:02:15;Kommission;ETH MUN;Igor Podjanin;igorpo@ethz.ch;Summerbar und GV;;;;;Zoom;Bevor das Semester zu Ende geht, haben wir für euch noch ein Paar Events auf Lager. Am 28.05 von 17 bis 22 Uhr bieten wir Snacks & Getränke in der Summerbar vor dem CAB an. Am 03.06 findet unsere GV statt, wo der Vorstand für das nächste Semester gewählt wird. Spontane Bewerbungen sind herzlich willkommen!;Summerbar and GA;Before this semester ends, we have some events for you. On May 28 from 5 until 10 PM we will be offering snacks & drinks at the Summerbar in front of the CAB. On June 3 we will be holding our biannual GA where we elect the board members for the next semester. Spontaneous applications are welcome!;;;;Der Eintrag ist keine Wiederholung / The entry has not been submitted yet, Ich habe die Rechtschreibung noch einmal kontrolliert / I double-checked the spelling
22/05/2021 16:01:36;anerkannte Organisation;MeWell Community;Miguel Quero;contact@mewellcommunity.ch;Wie können Sie Ihre mentale Widerstandsfähigkeit erhöhen? Dem Beispiel der Schachmeister folgen;22/06/2021;18:00:00;22/06/2021;19:00:00;https://bit.ly/348WomI;Gemeinsam mit Dr. Mecky McNeil und Dr. Michelle Wright werden wir in das Thema Resilienz eintauchen. Sie werden uns kreativ in die verschiedenen Aspekte der Resilienz einführen, von Stress über Wohlbefinden bis hin zu Bewältigungsstrategien, und wir werden ermutigt, über unser eigenes Stresslevel, unsere Stressreaktion und unser Wohlbefinden nachzudenken. https://bit.ly/348WomI;How to up your Mental Resilience? Following the example of the chess Masters;Together with Dr. Mecky McNeil and Dr. Michelle Wright, we will immerse ourselves in the topic of resilience. They will creatively introduce us into the various aspects of resilience from stress, to wellbeing and coping strategies, and we will be encouraged to think of our own stress-level, stress response and wellbeing.;;;;Der Eintrag ist keine Wiederholung / The entry has not been submitted yet, Ich habe die Rechtschreibung noch einmal kontrolliert / I double-checked the spelling
22/05/2021 15:52:34;anerkannte Organisation;MeWell;Miguel Quero;contact@mewellcommunity.ch;Runder Tisch zur psychischen Widerstandsfähigkeit;3/6/2021;19:00:00;3/6/2021;20:00:00;https://bit.ly/3wvybDx;Unser Teammitglied Lorraine Madur moderiert die nächste Serie unserer Roundtable-Veranstaltungen. Der Aufbau mentaler Resilienz ist eine wesentliche Fähigkeit, um im Leben zurechtzukommen und jedes Hindernis zu überwinden, das sich uns in den Weg stellt. Aber kann jeder mentale Resilienz aufbauen? Fühlen Sie sich frei, teilzunehmen oder einfach zuzuhören. https://bit.ly/3wvybDx;Round Table on Mental Resilience;Our team member Lorraine Madur hosts the next series of our Roundtable events. Building mental resilience is an essential ability to navigate life and overcome any obstacle coming our way. But can everyone build mental resilience? Feel free to participate or just listen in. https://bit.ly/3wvybDx;;;;Der Eintrag ist keine Wiederholung / The entry has not been submitted yet, Ich habe die Rechtschreibung noch einmal kontrolliert / I double-checked the spelling
22/05/2021 15:29:18;anerkannte Organisation;MeWell;Miguel Quero;contact@mewellcommunity.ch;Einen riesigen Fehler gemacht - was nun? Förderung einer Kultur der zweiten Chance;27/05/2021;18:00:00;27/05/2021;19:00:00;https://www.eventbrite.com/e/152784730241/;Die Persönlichkeitspsychologin Dr. Julia M. Rohrer spricht mit uns über Versagens- und Perfektionismuskultur in der Wissenschaft! Wenn Sie mit perfektionistischen Tendenzen in Ihrer Forschung kämpfen und das Gefühl haben, dass es Ihnen schwerfällt, mit Misserfolgen umzugehen, dann sollten Sie diesen Vortrag nicht verpassen! https://bit.ly/3bLnK6W;Made a Huge Mistake -- What now? Fostering a Culture of Second Chance;Personality psychologist Dr. Julia M. Rohrer will talk to us about failure and perfectionism culture in academia!;;;;Der Eintrag ist keine Wiederholung / The entry has not been submitted yet, Ich habe die Rechtschreibung noch einmal kontrolliert / I double-checked the spelling
22/05/2021 09:48:07;anerkannte Organisation;Reatch;Chantal von Siebenthal;chantal.v.siebenthal@reatch.ch;Mai nanoTalks: Gehirnströme während des Schlafs;27/05/2021;19:00:00;;;YouTube Live Stream;Bei den nanoTalks im Mai dreht sich alles um das Thema Schlaf: Erfahrt mehr über auditive Stimulation während des Schlafs und wie die Auswirkungen elektromagnetischer Felder des Mobilfunks unseren Schlaf beeinflussen. https://bit.ly/3bLhNa0;May nanoTalks: Brainwaves during sleep;The May nanoTalks are all about sleep: learn more about auditory stimulation during sleep and how the electromagnetic field effects of mobile communication affect our sleep. https://bit.ly/3bLhNa0;;;;Der Eintrag ist keine Wiederholung / The entry has not been submitted yet, Ich habe die Rechtschreibung noch einmal kontrolliert / I double-checked the spelling
21/05/2021 16:42:26;VSETH;Analytics Club at ETH;Pepa Arán ;pepa.aran@analytics-club.org;AI & Society Podiumsdiskussion;2/6/2021;18:30:00;;;Online;Machine Learning and Discrimination: Part of the Problem or a Solution? AI & Society ist die neue Diskussionsreihe des Analytics Club! Experten aus Akademia, der Industrie und dem öffentlichen Sektor diskutieren hierbei den Einfluss von künstlicher Intelligenz auf die Gesellschaft heute und in der Zukunft. Melde dich an auf analytics-club.org/ai_impact.; AI & Society panel discussion;Machine Learning and Discrimination: Part of the Problem or a Solution?;;;;Der Eintrag ist keine Wiederholung / The entry has not been submitted yet, Ich habe die Rechtschreibung noch einmal kontrolliert / I double-checked the spelling
21/05/2021 07:59:06;anerkannte Organisation;Stiftung KOSTA;Alexandra Gföhler;alexandra.gfoehler@kosta.ch;Werde KOSTA!;;;;;;Lust Geschichte zu schreiben und den grössten dekorierten Ball Europas mitzuplanen? Dann werde Mitglied der Stiftung KOSTA und organisiere mit uns den nächsten Polyball! Weitere Infos unter www.kosta.ch oder schreib uns eine Mail an info@kosta.ch. Wir freuen uns dich kennen zu lernen!;Become a member of KOSTA!;Want to make history and help plan the biggest decorated Ball of Europe? Become a member of the KOSTA Foundation and organize the next Polyball with us! For more information, visit www.kosta.ch or contact us directly via mail at info@kosta.ch. We're looking forward to getting to know you!;;;;Der Eintrag ist keine Wiederholung / The entry has not been submitted yet, Ich habe die Rechtschreibung noch einmal kontrolliert / I double-checked the spelling
20/05/2021 23:06:57;anerkannte Organisation;NEO Network;Leandro Vaglietti;leandro@neonetwork.ch;NEO Keynote – Migros: Digitaler Zwilling;26/05/2021;18:00:00;26/05/2021;19:30:00;;Digitaler Zwilling & Nachhaltigkeit - weisst du, wie dies zusammenhängt? Das Digital-Twin-Konzept ist im Aufschwung und wird in verschiedensten Bereichen eingesetzt. Erfahre an der NEO Keynote mit Rainer Baumann (COO), wie der Migros-Genossenschafts-Bund die Technologie einsetzt, um die Lieferkette nachhaltig zu gestalten. Lass dir die Chance nicht entgehen: https://bit.ly/3u60oPA;NEO Keynote – Migros: Digital Twin;Digital twin & sustainability - do you know how this is connected? The concept of Digital Twin is gaining momentum and is being applied in a broad range of fields. Discover how Migros is utilizing this technology to ensure the sustainability of their supply chain at the NEO Network Keynote with Rainer Baumann (COO). Don't miss this opportunity: https://bit.ly/3u60oPA;;;;Der Eintrag ist keine Wiederholung / The entry has not been submitted yet, Ich habe die Rechtschreibung noch einmal kontrolliert / I double-checked the spelling
20/05/2021 19:18:16;anerkannte Organisation;Theatergruppe AKITIV;David Tolar;dtolar@student.ethz.ch;Theatergruppe AKITIV: Freilichtaufführung Frank V. ;4/6/2021;20:30:00;16/06/2021;20:30:00;Aki Garten;Eine Gangsterbank möchte sich liquidieren lassen, ihre Angestellten fortan einen ruhigen Lebensabend verbringen. Doch dem schönen Schein nacheifernd, verstrickt sich die Bande immer fester in ein Netz aus Intrigen, Verfolgungswahn und Mord. Begleitet von Paul Burkhardts Musik verleitet diese Komödie Friedrich Dürrenmatts zu Lachern und ernsten Gedanken gleichzeitig. Mehr Infos auf www.akitiv.ch;Theater club AKITIV: open air play Frank V. ;Frank V. wants to dismantle the crooked bank of his forefathers, so him and his employees can spend their remaining days in peace. In order to do so, the gang gets itself caught more and more in a web of intrigues, persecution mania and murder. Accompanied by Paul Burkhart’s music, this comedy by Friedrich Dürrenmatt inspires laughter and serious thoughts at the same time. Info: www.akitiv.ch ;;;;Der Eintrag ist keine Wiederholung / The entry has not been submitted yet, Ich habe die Rechtschreibung noch einmal kontrolliert / I double-checked the spelling
20/05/2021 12:57:19;anerkannte Organisation;Discovery Semester;Elena Robinson;contact@discovery-semester.ch;Discovery Semester: Unterstütze Geflüchtete im Studienalltag an der ETH!;;;;;;Für das HS21 sucht das Discovery Semester Mentor*innen! Das Discovery Semester ermöglicht es Geflüchteten, kostenlos als Hörer*innen Vorlesungen an der ETH zu besuchen. Zum Programm gehören auch die vielseitigen Discovery Semester Events. Du bist interessiert? Mehr Informationen: https://bit.ly/3xRZedM, Anmeldung: https://bit.ly/33hm6oL;Discovery Semester: Support refugees in their everyday life at ETH!;The Discovery Semester is looking for mentors for HS21! The Discovery Semester enables refugees to attend lectures at ETH for free. The program also includes the diverse Discovery Semester events. You’re interested? More information: https://bit.ly/3xRZedM, registration: https://bit.ly/33hm6oL;;;;Der Eintrag ist keine Wiederholung / The entry has not been submitted yet, Ich habe die Rechtschreibung noch einmal kontrolliert / I double-checked the spelling
20/05/2021 11:29:21;Andere (z.B. ETH, vorher mit kommunikation@vseth.ethz.ch abgesprochen);Point;Jamila Gysin;jgysin@student.ethz.ch;"EM 2021 Tippspiel auf ""Point""";;;;;;Vom 11. Juni bis 11. Juli findet die diesjährige Fussball-EM statt. Um das Fussballfieber in diesem besonderen Jahr etwas zu steigern, findet für alle Mitglieder der ETH-Community ein Tippspiel auf der Online-Plattform «Point» statt. Mache mit als Einzelperson oder als Tippgemeinschaft mit z.B. deiner Lerngruppe. Es warten attraktive Preise. Hier geht's zum Tippspiel: https://point.ethz.ch ;"Euro 2021 Betting Game on ""Point""";"This year's European Football Championship will take place from June 11 to July 11. In order to increase the football-fever a bit in this special year, there will be a betting game on the online platform ""Point"" for all members of the ETH community. Participate as an individual or as a team with e.g. your study group. You can win attractive prizes. link to the betting game: https://point.ethz.ch ";Danke fürs Teile:);;;Der Eintrag ist keine Wiederholung / The entry has not been submitted yet, Ich habe die Rechtschreibung noch einmal kontrolliert / I double-checked the spelling
16/05/2021 16:31:45;Kommission;Tanzquotient;Daniel Sparber;dsparber@vseth.ch;Tanz-Workshops (Gratis);;;;;Im Freien;Der Tanzquotient bietet ab sofort wieder Workshops an! Und das Beste: alles ist kostenlos. Melde dich jetzt an: https://tanzquotient.org/courses;Dance Workshops (Free);Tanzquotient is offering dance workshops again! And the best thing: everything is free of charge. Sign up now: https://tanzquotient.org/courses;;;;Der Eintrag ist keine Wiederholung / The entry has not been submitted yet, Ich habe die Rechtschreibung noch einmal kontrolliert / I double-checked the spelling
