﻿04/06/21 14:30;anerkannte Organisation;Effective Altruism Zürich;Lennart Heim;lennart@eazurich.org;Effective Altruism Intro Fellowship mit Stanford;;;;;;Der Effektive Altruismus (EA) ist eine globale Bewegung mit dem Ziel Menschen dabei zu unterstützen strategisch und evidenzbasiert Gutes zu tun. Mehr über EA findet ihr: http://bit.ly/whatisea. Bei diesem Fellowship werden in 8 Wochen die Kernkonzept vorgestellt und in kleinen Gruppen diskutiert. Anmeldung und Infos: https://bit.ly/2Rnr4Oz Mehr über EA Zürich: https://bit.ly/EAZurich;Effective Altruism Intro Fellowship with Stanford;Effective Altruism is a global community of people who use strategic and evidence-based action to improve our future. More at http://bit.ly/whatisea. In this fellowship, we equip students with the knowledge to do good in the world more effectively. Info and registration: https://bit.ly/2Rnr4Oz Learn more about EA Zürich: https://bit.ly/EAZurich;;;;Der Eintrag ist keine Wiederholung / The entry has not been submitted yet, Ich habe die Rechtschreibung noch einmal kontrolliert / I double-checked the spelling;;;;;;;;
02.06.21 11:11;Fachverein;AMIV;Markus Niese;mniese@ethz.ch;Lernvideos für das Basisjahr;;;;;;Du lernst auf die Basisprüfung und bist auf der Suche nach verständlichen Erklärungen? Dann ist der YouTube-Kanal EE4ETH genau das richtige für dich. Assistierende erklären in kurzen Videos wichtige Grundlagen des Elektrotechnik-Basisjahres. Natürlich ist für andere Studiengänge auch etwas dabei. Schau doch mal vorbei auf: https://amiv.ch/ee4eth;Study videos for the first year;Are you studying for your first-year exams and are looking for easy explanations of the topics? In this case, the YouTube channel EE4ETH is just the thing for you. In short Videos, assistants explain important foundations of the first year in electrical engineering. Obviously, they are also useful for other study programs. Have a look at: https://amiv.ch/ee4eth;;;;Der Eintrag ist keine Wiederholung / The entry has not been submitted yet, Ich habe die Rechtschreibung noch einmal kontrolliert / I double-checked the spelling;;;;;;;;
01.06.21 23:13;assoziierte Organisation;Erasmus Student Network (ESN);Marianna Szambelan;vicepresident@zurich.esn.ch;ESN Zürich: Mach mit!;;;;;;Die Studierendenorganisation ESN versucht, den Gaststudierenden in der Schweiz mit Kultur, Ausflügen, Sport und sonstigen Events ein möglichst unvergessliches Austauscherlebnis zu bieten. Die Sektion Zürich sucht motivierte, offene, engagierte Studierende für das nächste Semester. Klingt spannend? Dann bewirb dich unter http://zurich.esn.ch;ESN Zürich: Join us!;ESN Zürich is a student association that supports international students in Zurich. It organizes a variety of fun events during the semester, such as the famous Welcome Party, ski weekends, city trips and hikes. The association is looking for motivated, excited, open-minded students who want to get involved. Sounds like you? Then apply under http://zurich.esn.ch/;;;;Der Eintrag ist keine Wiederholung / The entry has not been submitted yet, Ich habe die Rechtschreibung noch einmal kontrolliert / I double-checked the spelling;;;;;;;;
31.05.21 18:31;anerkannte Organisation;VELOVE Veloverein;Collins Arthur;arthur.collins@velovezh.ch;Eröffnung Velowerkstatt in Winterthur!;;17:00:00;;20:00:00;VELOVE Velowerkstatt Winterthur;Vor einer Woche wurde die neue Fahrradwerkstatt von VELOVE in Winterthur eröffnet! Schau mal rein, wenn du dich in Nähe Winterthur befindest und dein Velo flicken musst! VELOVE sucht auch nach kontaktfreudigen Helfern (active members) die gelegentlich die Werkstatt betreuen. Für infos dazu und zur neuen Werkstatt, siehe https://www.velovezh.ch/getinvolved.php;Just Opened: VELOVE Bike Workshop in Winterthur!;A week ago, the new VELOVE bicycle workshop opened in Winterthur! Have a look if you are near Winterthur and need to repair your bike! VELOVE is also looking for friendly workshop helpers to occasionally run the workshop (active members). For information on this and the new workshop, see https://www.velovezh.ch/getinvolved.php;;;;Der Eintrag ist keine Wiederholung / The entry has not been submitted yet, Ich habe die Rechtschreibung noch einmal kontrolliert / I double-checked the spelling;;;;;;;;
31.05.21 14:04;anerkannte Organisation;Reatch;Chantal von Siebenthal;chantal.v.siebenthal@reatch.ch;Juni nanoTalks: Nachhaltigkeit;24.06.21;19:00:00;;;YouTube Live Stream;Sei bei den nanoTalks zu Nachhaltigkeitsthemen im Juni dabei! Erfahre, ob Second-Hand-Kleidung wirklich die Lösung ist, um die Umweltbelastung durch die Textilindustrie zu reduzieren und gewinne wissenschaftliche Einblicke in Ursachen und Ausmaß relevanter Umweltbelastungen durch Kunststoffe. https://bit.ly/3uE8lf7;June nanoTalks: Sustainability;Join the nanoTalks about sustainability topics in June! You will learn whether second-hand clothes are really the solution to reducing the environmental impact of the textile industry and gain scientific insights into the causes and extent of relevant environmental pollution caused by plastics. https://bit.ly/3uE8lf7;;;;Der Eintrag ist keine Wiederholung / The entry has not been submitted yet, Ich habe die Rechtschreibung noch einmal kontrolliert / I double-checked the spelling;;;;;;;;
29.05.21 19:54;Kommission;Tanzquotient;Daniel Sparber;informatik@tanzquotient.org;European Tournament for Dancing Students (ETDS);08.10.21;19:00:00;11.10.21;11:00:00;TU Delft;Im Oktober findet endlich wieder das das grösste studentische Tanzturnier Europas statt, das ETDS! (https://fotf3030.nl) Beim ETDS handelt es sich um ein Wochenende voll mit Tanzen, vier Turnieren, Tanzparties, Socializing, Shows und vielem mehr! Bei mehr interesse, schaut vorbei auf https://tanzquotient.org/events/100017/detail/.;European Tournament for Dancing Students;In October, the biggest student dance tournament in Europe will finally take place again, the ETDS! (https://fotf3030.nl) The ETDS is a weekend full of dancing, tournaments, dance parties, socializing, shows and much more! For more information, check out https://tanzquotient.org/events/100017/detail/.;;;;Der Eintrag ist keine Wiederholung / The entry has not been submitted yet, Ich habe die Rechtschreibung noch einmal kontrolliert / I double-checked the spelling;;;;;;;;
23.05.21 11:13;anerkannte Organisation;Student Wine Association;Philipp Scherrer;phischer@ethz.ch;Wine Time mit SWAZ;;;;;;Wir organisieren Weintastings mit studentischen Preisen für euch. Komm einfach mal vorbei, egal ob Weinkenner oder Neuling. Schau doch auf unsere Homepage vorbei und melde dich gleich für das nächste Tasting morgen an mit dem Thema „neue Welt“ an: https://bit.ly/3yyMFnK 🍷🥂;Wine Time with SWAZ;"We organize wine tastings with student prices for you. Just come by, no matter if you are a wine connoisseur or a newcomer. Take a look at our homepage and register for the next tasting tomorrow with the theme ""new world"": https://bit.ly/3yyMFnK 🍷🥂";;;;Der Eintrag ist keine Wiederholung / The entry has not been submitted yet, Ich habe die Rechtschreibung noch einmal kontrolliert / I double-checked the spelling;;;;;;;;
